[
  {
    "type": "post",
    "url": "/auth/login",
    "title": "User Login",
    "name": "Login",
    "group": "Authentication",
    "version": "1.0.0",
    "parameter": {
      "fields": {
        "Parameter": [
          {
            "group": "Parameter",
            "type": "String",
            "optional": false,
            "field": "email",
            "description": "<p>User's email</p>"
          },
          {
            "group": "Parameter",
            "type": "String",
            "optional": false,
            "field": "password",
            "description": "<p>User passwordº</p>"
          }
        ]
      }
    },
    "success": {
      "fields": {
        "Success 200": [
          {
            "group": "Success 200",
            "type": "User",
            "optional": false,
            "field": "User",
            "description": "<p>User info</p>"
          },
          {
            "group": "Success 200",
            "type": "jwt",
            "optional": false,
            "field": "String",
            "description": "<p>JWT token for future calls</p>"
          }
        ]
      },
      "examples": [
        {
          "title": "Success-Response:",
          "content": " HTTP/1.1 200 OK\n{\n \"user\": {\n     \"_id\": {\n         \"$oid\": \"5c0bdbc61f6e4f682f464fef\"\n     },\n     \"id\": 2,\n     \"firstName\": \"Rodrigo Viana\",\n     \"lastName\": \"Recoba\",\n     \"email\": \"rodri@gmail.com\",\n     \"password\": \"$2a$10$Sx7GMhoKPQEClI4Zxrz2h.vLAUpfUlVztqhlJm8XJjDLUOA47NDKa\",\n     \"accounts\": [\n         {\n             \"id\": 326925,\n             \"name\": \"Caja de Ahorro UYU\",\n             \"balance\": 50,\n             \"currency\": \"UYU\"\n         },\n         {\n           \"id\": 2192907,\n           \"name\": \"Caja de Ahorro USD\",\n           \"balance\": 697,\n           \"currency\": \"USD\"\n       }\n    ]\n  },\n  \"jwt\": \"eyJhbGciOiJIUzI1NiIsInR5cCI6IkpXVCJ9.eyJpZCI6MiwiZW1haWwiOiJyb2RyaUBnbWFpbC5jb20iLCJpYXQiOjE1NDQzODY1MTEsImV4cCI6MTU0NDM5MDExMX0.g8_7ohS-_7LlV5rUr7ZCB2YPdTyUPEPP2s7FgAPXawQ\"\n}",
          "type": "json"
        }
      ]
    },
    "error": {
      "fields": {
        "Error 4xx": [
          {
            "group": "Error 4xx",
            "optional": false,
            "field": "401",
            "description": "<p>Unauthorized</p>"
          },
          {
            "group": "Error 4xx",
            "optional": false,
            "field": "400",
            "description": "<p>Bad Request</p>"
          },
          {
            "group": "Error 4xx",
            "optional": false,
            "field": "500",
            "description": "<p>Internal Server Error</p>"
          }
        ]
      },
      "examples": [
        {
          "title": "Error-401:",
          "content": "HTTP/1.1 401 Unauthorized\n{\n  \"msg\": \"Error message\"\n}",
          "type": "json"
        },
        {
          "title": "Error-404:",
          "content": "HTTP/1.1 400 Bad Reuqest\n{\n  \"msg\": \"Error message\"\n}",
          "type": "json"
        },
        {
          "title": "Error-500:",
          "content": "HTTP/1.1 500 Internal Server Error\n{\n  \"msg\": \"Error message\"\n}",
          "type": "json"
        }
      ]
    },
    "filename": "controllers/authentication.js",
    "groupTitle": "Authentication"
  },
  {
    "type": "post",
    "url": "/auth/logout",
    "title": "User Logout",
    "name": "Logout",
    "group": "Authentication",
    "version": "1.0.0",
    "header": {
      "fields": {
        "Header": [
          {
            "group": "Header",
            "type": "String",
            "optional": false,
            "field": "authorization",
            "description": "<p>Users JWT token.</p>"
          }
        ]
      },
      "examples": [
        {
          "title": "Header-Example:",
          "content": "{\n  \"Authorization\": \"eyJhbGciOiJIUzI1NiIsInR5cCI6IkpXVCJ9.eyJpZCI6IjVhMzE0YmFjNzY1Nzc2MGM1YWRkNTM2MiIsImZpcnN0TmFtZSI6IkFyZWwiLCJsYXN0TmFtZSI6IlNpcmluIiwiZW1haWwiOiJhcmVsc2lyaW4rMUBnbWFpbC5jb20iLCJpYXQiOjE1MTY3MzQyNDgsImV4cCI6MTUxNjc0NDMyOH0.mQzSgw_A5PdFfyRs88BZgyBUvmZhzrrmfw2SZWp6kUw\"\n}",
          "type": "json"
        }
      ]
    },
    "parameter": {
      "fields": {
        "Parameter": [
          {
            "group": "Parameter",
            "type": "String",
            "optional": false,
            "field": "email",
            "description": "<p>User's email to logut</p>"
          }
        ]
      }
    },
    "success": {
      "examples": [
        {
          "title": "Success-Response:",
          "content": " HTTP/1.1 200 OK\n{\n\n}",
          "type": "json"
        }
      ]
    },
    "error": {
      "examples": [
        {
          "title": "Error-500:",
          "content": "HTTP/1.1 500 Internal Server Error\n{\n  \"msg\": \"Error message\"\n}",
          "type": "json"
        }
      ]
    },
    "filename": "controllers/authentication.js",
    "groupTitle": "Authentication"
  },
  {
    "type": "post",
    "url": "/users/:id/accounts/:id/transations",
    "title": "Add Transaction",
    "name": "AddTransaction",
    "group": "Transaction",
    "version": "1.0.0",
    "header": {
      "fields": {
        "Header": [
          {
            "group": "Header",
            "type": "String",
            "optional": false,
            "field": "authorization",
            "description": "<p>Users JWT token.</p>"
          }
        ]
      },
      "examples": [
        {
          "title": "Header-Example:",
          "content": "{\n  \"Authorization\": \"eyJhbGciOiJIUzI1NiIsInR5cCI6IkpXVCJ9.eyJpZCI6IjVhMzE0YmFjNzY1Nzc2MGM1YWRkNTM2MiIsImZpcnN0TmFtZSI6IkFyZWwiLCJsYXN0TmFtZSI6IlNpcmluIiwiZW1haWwiOiJhcmVsc2lyaW4rMUBnbWFpbC5jb20iLCJpYXQiOjE1MTY3MzQyNDgsImV4cCI6MTUxNjc0NDMyOH0.mQzSgw_A5PdFfyRs88BZgyBUvmZhzrrmfw2SZWp6kUw\"\n}",
          "type": "json"
        }
      ]
    },
    "parameter": {
      "fields": {
        "Parameter": [
          {
            "group": "Parameter",
            "type": "Double",
            "optional": false,
            "field": "amount",
            "description": "<p>Transaction amount</p>"
          },
          {
            "group": "Parameter",
            "type": "String",
            "optional": false,
            "field": "description",
            "description": "<p>Transaction description</p>"
          },
          {
            "group": "Parameter",
            "type": "String",
            "optional": false,
            "field": "type",
            "description": "<p>Transaction type (Credito, Debito)</p>"
          }
        ]
      }
    },
    "success": {
      "fields": {
        "Success 200": [
          {
            "group": "Success 200",
            "type": "String",
            "optional": false,
            "field": "msg",
            "description": "<p>Message</p>"
          },
          {
            "group": "Success 200",
            "type": "Transaction",
            "optional": false,
            "field": "response",
            "description": "<p>Transaction detail</p>"
          }
        ]
      },
      "examples": [
        {
          "title": "Success-Response:",
          "content": "    HTTP/1.1 200 OK\n   {\n    \"msg\": \"Transaccion registrada exitosamente\",\n    \"response\": {\n        \"user_id\": 2,\n        \"account_id\": 326925,\n        \"description\": \"Test API 1\",\n        \"amount\": 300.12,\n        \"type\": \"Credito\",\n        \"date\": \"09/12/2018\",\n        \"_id\": {\n            \"$oid\": \"5c0d9ff01f6e4f682f4b2d8b\"\n        }\n    }\n}",
          "type": "json"
        }
      ]
    },
    "error": {
      "fields": {
        "Error 4xx": [
          {
            "group": "Error 4xx",
            "optional": false,
            "field": "400",
            "description": "<p>Bad Request</p>"
          },
          {
            "group": "Error 4xx",
            "optional": false,
            "field": "401",
            "description": "<p>Unauthorized</p>"
          },
          {
            "group": "Error 4xx",
            "optional": false,
            "field": "500",
            "description": "<p>Internal Server Error</p>"
          }
        ]
      },
      "examples": [
        {
          "title": "Error-404:",
          "content": "HTTP/1.1 400 Bad Request\n{\n  \"msg\": \"Error message\"\n}",
          "type": "json"
        },
        {
          "title": "Error-401:",
          "content": "HTTP/1.1 401 Unauthorized\n{\n  \"msg\": \"Error message\"\n}",
          "type": "json"
        },
        {
          "title": "Error-500:",
          "content": "HTTP/1.1 500 Internal Server Error\n{\n  \"msg\": \"Error message\"\n}",
          "type": "json"
        }
      ]
    },
    "filename": "controllers/transactions.js",
    "groupTitle": "Transaction"
  },
  {
    "type": "get",
    "url": "/users/:id/accounts/:id/transations",
    "title": "Get Transactions",
    "name": "GetTransactions",
    "group": "Transaction",
    "version": "1.0.0",
    "header": {
      "fields": {
        "Header": [
          {
            "group": "Header",
            "type": "String",
            "optional": false,
            "field": "authorization",
            "description": "<p>Users JWT token.</p>"
          }
        ]
      },
      "examples": [
        {
          "title": "Header-Example:",
          "content": "{\n  \"Authorization\": \"eyJhbGciOiJIUzI1NiIsInR5cCI6IkpXVCJ9.eyJpZCI6IjVhMzE0YmFjNzY1Nzc2MGM1YWRkNTM2MiIsImZpcnN0TmFtZSI6IkFyZWwiLCJsYXN0TmFtZSI6IlNpcmluIiwiZW1haWwiOiJhcmVsc2lyaW4rMUBnbWFpbC5jb20iLCJpYXQiOjE1MTY3MzQyNDgsImV4cCI6MTUxNjc0NDMyOH0.mQzSgw_A5PdFfyRs88BZgyBUvmZhzrrmfw2SZWp6kUw\"\n}",
          "type": "json"
        }
      ]
    },
    "success": {
      "fields": {
        "Success 200": [
          {
            "group": "Success 200",
            "type": "Array",
            "optional": false,
            "field": "transactions",
            "description": "<p>The list of Transactions</p>"
          }
        ]
      },
      "examples": [
        {
          "title": "Success-Response:",
          "content": "[{\n      \"_id\": {\n          \"$oid\": \"5c0d634f1f6e4f682f4ab1bd\"\n      },\n      \"user_id\": 2,\n      \"account_id\": 326925,\n      \"description\": \"test\",\n      \"amount\": 10,\n      \"type\": \"Credito\",\n      \"date\": \"09/12/2018\"\n  },\n  {\n      \"_id\": {\n          \"$oid\": \"5c0d635a1f6e4f682f4ab1bf\"\n      },\n      \"user_id\": 2,\n      \"account_id\": 326925,\n      \"description\": \"test\",\n      \"amount\": 10,\n      \"type\": \"Debito\",\n      \"date\": \"09/12/2018\"\n  }\n}]",
          "type": "json"
        }
      ]
    },
    "error": {
      "fields": {
        "Error 4xx": [
          {
            "group": "Error 4xx",
            "optional": false,
            "field": "500",
            "description": "<p>Internal Server Error</p>"
          }
        ]
      },
      "examples": [
        {
          "title": "Error-500:",
          "content": "HTTP/1.1 500 Internal Server Error\n{\n  \"msg\": \"Error message\"\n}",
          "type": "json"
        }
      ]
    },
    "filename": "controllers/transactions.js",
    "groupTitle": "Transaction"
  },
  {
    "type": "del",
    "url": "/users/:id",
    "title": "Delete User",
    "name": "DeleteUser",
    "group": "User",
    "version": "1.0.0",
    "header": {
      "fields": {
        "Header": [
          {
            "group": "Header",
            "type": "String",
            "optional": false,
            "field": "authorization",
            "description": "<p>Users JWT token.</p>"
          }
        ]
      },
      "examples": [
        {
          "title": "Header-Example:",
          "content": "{\n  \"Authorization\": \"eyJhbGciOiJIUzI1NiIsInR5cCI6IkpXVCJ9.eyJpZCI6IjVhMzE0YmFjNzY1Nzc2MGM1YWRkNTM2MiIsImZpcnN0TmFtZSI6IkFyZWwiLCJsYXN0TmFtZSI6IlNpcmluIiwiZW1haWwiOiJhcmVsc2lyaW4rMUBnbWFpbC5jb20iLCJpYXQiOjE1MTY3MzQyNDgsImV4cCI6MTUxNjc0NDMyOH0.mQzSgw_A5PdFfyRs88BZgyBUvmZhzrrmfw2SZWp6kUw\"\n}",
          "type": "json"
        }
      ]
    },
    "success": {
      "fields": {
        "Success 200": [
          {
            "group": "Success 200",
            "type": "String",
            "optional": false,
            "field": "msg",
            "description": "<p>Messge</p>"
          }
        ]
      },
      "examples": [
        {
          "title": "Success-Response:",
          "content": "HTTP/1.1 200 OK\n{\n \"msg\": \"Usuario eliminado exitosamente.\"\n}",
          "type": "json"
        }
      ]
    },
    "error": {
      "fields": {
        "Error 4xx": [
          {
            "group": "Error 4xx",
            "optional": false,
            "field": "401",
            "description": "<p>Unauthorized</p>"
          },
          {
            "group": "Error 4xx",
            "optional": false,
            "field": "404",
            "description": "<p>Not Found</p>"
          },
          {
            "group": "Error 4xx",
            "optional": false,
            "field": "500",
            "description": "<p>Internal Server Error</p>"
          }
        ]
      },
      "examples": [
        {
          "title": "Error-401:",
          "content": "HTTP/1.1 401 Unauthorized\n{\n  \"msg\": \"Error message\"\n}",
          "type": "json"
        },
        {
          "title": "Error-404:",
          "content": "HTTP/1.1 404 Not Found\n{\n  \"msg\": \"Error message\"\n}",
          "type": "json"
        },
        {
          "title": "Error-500:",
          "content": "HTTP/1.1 500 Internal Server Error\n{\n  \"msg\": \"Error message\"\n}",
          "type": "json"
        }
      ]
    },
    "filename": "controllers/users.js",
    "groupTitle": "User"
  },
  {
    "type": "get",
    "url": "/users/",
    "title": "Get Users",
    "name": "GetUsers",
    "group": "User",
    "version": "1.0.0",
    "header": {
      "fields": {
        "Header": [
          {
            "group": "Header",
            "type": "String",
            "optional": false,
            "field": "authorization",
            "description": "<p>Users JWT token.</p>"
          }
        ]
      },
      "examples": [
        {
          "title": "Header-Example:",
          "content": "{\n  \"Authorization\": \"eyJhbGciOiJIUzI1NiIsInR5cCI6IkpXVCJ9.eyJpZCI6IjVhMzE0YmFjNzY1Nzc2MGM1YWRkNTM2MiIsImZpcnN0TmFtZSI6IkFyZWwiLCJsYXN0TmFtZSI6IlNpcmluIiwiZW1haWwiOiJhcmVsc2lyaW4rMUBnbWFpbC5jb20iLCJpYXQiOjE1MTY3MzQyNDgsImV4cCI6MTUxNjc0NDMyOH0.mQzSgw_A5PdFfyRs88BZgyBUvmZhzrrmfw2SZWp6kUw\"\n}",
          "type": "json"
        }
      ]
    },
    "success": {
      "fields": {
        "Success 200": [
          {
            "group": "Success 200",
            "type": "User",
            "optional": false,
            "field": "response",
            "description": "<p>User Detail</p>"
          }
        ]
      },
      "examples": [
        {
          "title": "Success-Response:",
          "content": "   HTTP/1.1 200 OK\n   [\n      {\n          \"id\": 1,\n          \"firstName\": \"Rodrigo\",\n          \"lastName\": \"Recoba\",\n          \"email\": \"r@r.com\",\n          \"password\": \"$2a$10$Nj2i7LJx1kssqY/MlboRre5ilVdHx/cHIaHtJ1NRQaYXZsvhnb28u\",\n          \"accounts\": [\n              {\n                  \"id\": 5433459,\n                  \"name\": \"Caja de Ahorro UYU\",\n                  \"balance\": 0,\n                  \"currency\": \"UYU\",\n                  \"transactions\": []\n              },\n              {\n                  \"id\": 5340606,\n                  \"name\": \"Caja de Ahorro USD\",\n                  \"balance\": 0,\n                  \"currency\": \"USD\",\n                  \"transactions\": []\n              }\n          ]\n      },\n      {\n          \"id\": 2,\n          \"firstName\": \"Rodrigo Viana\",\n          \"lastName\": \"Recoba\",\n          \"email\": \"rodri@gmail.com\",\n          \"password\": \"$2a$10$Sx7GMhoKPQEClI4Zxrz2h.vLAUpfUlVztqhlJm8XJjDLUOA47NDKa\",\n          \"accounts\": [\n              {\n                  \"id\": 326925,\n                  \"name\": \"Caja de Ahorro UYU\",\n                  \"balance\": -550.24,\n                  \"currency\": \"UYU\",\n                  \"transactions\": []\n              },\n              {\n                  \"id\": 2192907,\n                  \"name\": \"Caja de Ahorro USD\",\n                  \"balance\": 847,\n                  \"currency\": \"USD\",\n                  \"transactions\": []\n              }\n          ]\n      }\n]",
          "type": "json"
        }
      ]
    },
    "error": {
      "fields": {
        "Error 4xx": [
          {
            "group": "Error 4xx",
            "optional": false,
            "field": "401",
            "description": "<p>Unauthorized</p>"
          },
          {
            "group": "Error 4xx",
            "optional": false,
            "field": "404",
            "description": "<p>Not Found</p>"
          },
          {
            "group": "Error 4xx",
            "optional": false,
            "field": "500",
            "description": "<p>Internal Server Error</p>"
          }
        ]
      },
      "examples": [
        {
          "title": "Error-401:",
          "content": "HTTP/1.1 401 Unauthorized\n{\n  \"msg\": \"Error message\"\n}",
          "type": "json"
        },
        {
          "title": "Error-404:",
          "content": "HTTP/1.1 404 Not Found\n{\n  \"msg\": \"Error message\"\n}",
          "type": "json"
        },
        {
          "title": "Error-500:",
          "content": "HTTP/1.1 500 Internal Server Error\n{\n  \"msg\": \"Error message\"\n}",
          "type": "json"
        }
      ]
    },
    "filename": "controllers/users.js",
    "groupTitle": "User"
  },
  {
    "type": "put",
    "url": "/users/:id",
    "title": "Modity User",
    "name": "ModifyUser",
    "group": "User",
    "version": "1.0.0",
    "header": {
      "fields": {
        "Header": [
          {
            "group": "Header",
            "type": "String",
            "optional": false,
            "field": "authorization",
            "description": "<p>Users JWT token.</p>"
          }
        ]
      },
      "examples": [
        {
          "title": "Header-Example:",
          "content": "{\n  \"Authorization\": \"eyJhbGciOiJIUzI1NiIsInR5cCI6IkpXVCJ9.eyJpZCI6IjVhMzE0YmFjNzY1Nzc2MGM1YWRkNTM2MiIsImZpcnN0TmFtZSI6IkFyZWwiLCJsYXN0TmFtZSI6IlNpcmluIiwiZW1haWwiOiJhcmVsc2lyaW4rMUBnbWFpbC5jb20iLCJpYXQiOjE1MTY3MzQyNDgsImV4cCI6MTUxNjc0NDMyOH0.mQzSgw_A5PdFfyRs88BZgyBUvmZhzrrmfw2SZWp6kUw\"\n}",
          "type": "json"
        }
      ]
    },
    "parameter": {
      "fields": {
        "Parameter": [
          {
            "group": "Parameter",
            "type": "String",
            "optional": false,
            "field": "firstName",
            "description": "<p>User's firstName</p>"
          },
          {
            "group": "Parameter",
            "type": "String",
            "optional": false,
            "field": "lastName",
            "description": "<p>User's firstName</p>"
          },
          {
            "group": "Parameter",
            "type": "String",
            "optional": false,
            "field": "password",
            "description": "<p>User password</p>"
          }
        ]
      }
    },
    "success": {
      "fields": {
        "Success 200": [
          {
            "group": "Success 200",
            "type": "String",
            "optional": false,
            "field": "msg",
            "description": "<p>Messge</p>"
          }
        ]
      },
      "examples": [
        {
          "title": "Success-Response:",
          "content": "HTTP/1.1 200 OK\n{\n \"msg\": \"Usuario actualizado exitosamente.\"\n}",
          "type": "json"
        }
      ]
    },
    "error": {
      "fields": {
        "Error 4xx": [
          {
            "group": "Error 4xx",
            "optional": false,
            "field": "400",
            "description": "<p>Bad Request</p>"
          },
          {
            "group": "Error 4xx",
            "optional": false,
            "field": "401",
            "description": "<p>Unauthorized</p>"
          },
          {
            "group": "Error 4xx",
            "optional": false,
            "field": "404",
            "description": "<p>Not Found</p>"
          },
          {
            "group": "Error 4xx",
            "optional": false,
            "field": "500",
            "description": "<p>Internal Server Error</p>"
          }
        ]
      },
      "examples": [
        {
          "title": "Error-400:",
          "content": "HTTP/1.1 400 Bad Request\n{\n  \"msg\": \"Error message\"\n}",
          "type": "json"
        },
        {
          "title": "Error-401:",
          "content": "HTTP/1.1 401 Unauthorized\n{\n  \"msg\": \"Error message\"\n}",
          "type": "json"
        },
        {
          "title": "Error-404:",
          "content": "HTTP/1.1 404 Not Found\n{\n  \"msg\": \"Error message\"\n}",
          "type": "json"
        },
        {
          "title": "Error-500:",
          "content": "HTTP/1.1 500 Internal Server Error\n{\n  \"msg\": \"Error message\"\n}",
          "type": "json"
        }
      ]
    },
    "filename": "controllers/users.js",
    "groupTitle": "User"
  },
  {
    "type": "post",
    "url": "/users/",
    "title": "Register",
    "name": "Register",
    "group": "User",
    "version": "1.0.0",
    "parameter": {
      "fields": {
        "Parameter": [
          {
            "group": "Parameter",
            "type": "String",
            "optional": false,
            "field": "email",
            "description": "<p>User's email</p>"
          },
          {
            "group": "Parameter",
            "type": "String",
            "optional": false,
            "field": "firstName",
            "description": "<p>User's firstName</p>"
          },
          {
            "group": "Parameter",
            "type": "String",
            "optional": false,
            "field": "lastName",
            "description": "<p>User's firstName</p>"
          },
          {
            "group": "Parameter",
            "type": "String",
            "optional": false,
            "field": "password",
            "description": "<p>User password</p>"
          }
        ]
      }
    },
    "success": {
      "fields": {
        "Success 200": [
          {
            "group": "Success 200",
            "type": "String",
            "optional": false,
            "field": "msg",
            "description": "<p>Message</p>"
          },
          {
            "group": "Success 200",
            "type": "User",
            "optional": false,
            "field": "response",
            "description": "<p>User Detail</p>"
          }
        ]
      },
      "examples": [
        {
          "title": "Success-Response:",
          "content": "    HTTP/1.1 200 OK\n{\n   \"msg\": \"Usuario registrado exitosamente\",\n   \"response\": {\n       \"id\": 4,\n       \"firstName\": \"rodrigo\",\n        \"email\": \"r1@r.com\",\n        \"password\": \"$2a$10$sWhRqqvQpp1WhRV3v3./LeIy5Lj1cM3j0lFsbtVtxxyc7ina0wnjG\",\n        \"accounts\": [\n            {\n                \"id\": 7285434,\n                \"name\": \"Caja de Ahorro UYU\",\n                \"balance\": 0,\n                \"currency\": \"UYU\",\n                \"transactions\": []\n            },\n            {\n                \"id\": 1582414,\n                \"name\": \"Caja de Ahorro USD\",\n                \"balance\": 0,\n                \"currency\": \"USD\",\n                \"transactions\": []\n            }\n        ],\n        \"_id\": {\n            \"$oid\": \"5c0da5641f6e4f682f4b3c81\"\n        }\n    }\n}",
          "type": "json"
        }
      ]
    },
    "error": {
      "fields": {
        "Error 4xx": [
          {
            "group": "Error 4xx",
            "optional": false,
            "field": "400",
            "description": "<p>Bad Request</p>"
          },
          {
            "group": "Error 4xx",
            "optional": false,
            "field": "409",
            "description": "<p>Conflict</p>"
          },
          {
            "group": "Error 4xx",
            "optional": false,
            "field": "500",
            "description": "<p>Internal Server Error</p>"
          }
        ]
      },
      "examples": [
        {
          "title": "Error-404:",
          "content": "HTTP/1.1 400 Bad Reuqest\n{\n  \"msg\": \"Error message\"\n}",
          "type": "json"
        },
        {
          "title": "Error-409:",
          "content": "HTTP/1.1 409 Conflict\n{\n  \"msg\": \"Error message\"\n}",
          "type": "json"
        },
        {
          "title": "Error-500:",
          "content": "HTTP/1.1 500 Internal Server Error\n{\n  \"msg\": \"Error message\"\n}",
          "type": "json"
        }
      ]
    },
    "filename": "controllers/users.js",
    "groupTitle": "User"
  }
]
